<svg width="1244" height="927" viewBox="0 0 1244 927" fill="none" xmlns="http://www.w3.org/2000/svg">
<path d="M1244 814.648H0V815.27H1244V814.648Z" fill="#EBEBEB"/>
<path d="M589.681 703.69H109.273C101.436 703.69 95.0664 697.321 95.0664 689.484V14.2057C95.0664 6.36891 101.436 0 109.273 0H589.706C597.543 0 603.912 6.36891 603.912 14.2057V689.484C603.887 697.321 597.518 703.69 589.681 703.69ZM109.273 0.621964C101.784 0.621964 95.6884 6.71721 95.6884 14.2057V689.484C95.6884 696.973 101.784 703.068 109.273 703.068H589.706C597.195 703.068 603.29 696.973 603.29 689.484V14.2057C603.29 6.71721 597.195 0.621964 589.706 0.621964H109.273Z" fill="#EBEBEB"/>
<path d="M1127.84 703.69H647.403C639.565 703.69 633.196 697.321 633.196 689.484V14.2057C633.196 6.36891 639.565 0 647.403 0H1127.84C1135.67 0 1142.04 6.36891 1142.04 14.2057V689.484C1142.04 697.321 1135.67 703.69 1127.84 703.69ZM647.403 0.621964C639.914 0.621964 633.818 6.71721 633.818 14.2057V689.484C633.818 696.973 639.914 703.068 647.403 703.068H1127.84C1135.32 703.068 1141.42 696.973 1141.42 689.484V14.2057C1141.42 6.71721 1135.32 0.621964 1127.84 0.621964H647.403Z" fill="#EBEBEB"/>
<path d="M192.273 838.333H127.585V838.955H192.273V838.333Z" fill="#EBEBEB"/>
<path d="M473.168 831.591H361.133V832.213H473.168V831.591Z" fill="#EBEBEB"/>
<path d="M346.006 861.445H194.761V862.067H346.006V861.445Z" fill="#EBEBEB"/>
<path d="M1116.42 857.266H1068.57V857.888H1116.42V857.266Z" fill="#EBEBEB"/>
<path d="M1046.4 857.266H908.842V857.888H1046.4V857.266Z" fill="#EBEBEB"/>
<path d="M824.822 846.742H639.54V847.364H824.822V846.742Z" fill="#EBEBEB"/>
<path d="M422.065 598.852H286.269L278.034 503.766H413.829L422.065 598.852Z" fill="#E6E6E6"/>
<path d="M429.106 598.852H293.31L285.05 503.766H420.845L429.106 598.852Z" fill="#F0F0F0"/>
<path d="M311.871 578.451L307.343 524.191H402.285L406.813 578.451H311.871Z" fill="white"/>
<path d="M509.07 598.852H489.688V814.623H509.07V598.852Z" fill="#E6E6E6"/>
<path d="M515.165 598.852H501.705V814.623H515.165V598.852Z" fill="#F0F0F0"/>
<path d="M327.546 622.687H515.166V598.879H327.546V622.687Z" fill="#F0F0F0"/>
<path d="M334.188 622.685H314.807V814.648H334.188V622.685Z" fill="#E6E6E6"/>
<path d="M340.309 622.685H326.849V814.648H340.309V622.685Z" fill="#F0F0F0"/>
<path d="M196.204 622.685H176.822V814.648H196.204V622.685Z" fill="#E6E6E6"/>
<path d="M202.324 622.685H188.864V814.648H202.324V622.685Z" fill="#F0F0F0"/>
<path d="M386.386 622.685H367.005V814.648H386.386V622.685Z" fill="#E6E6E6"/>
<path d="M392.507 622.685H379.047V814.648H392.507V622.685Z" fill="#F0F0F0"/>
<path d="M327.545 598.852H176.822V622.66H327.545V598.852Z" fill="#E6E6E6"/>
<path d="M734.557 68.3164H171.697V391.19H734.557V68.3164Z" fill="#E6E6E6"/>
<path d="M749.585 68.3164H178.713V391.19H749.585V68.3164Z" fill="#F0F0F0"/>
<path d="M734.557 391.19H171.697V419.154H734.557V391.19Z" fill="#E6E6E6"/>
<path d="M774.639 391.19H203.767V419.154H774.639V391.19Z" fill="#F0F0F0"/>
<path d="M728.537 370.139V89.3843L199.787 89.3843V370.139L728.537 370.139Z" fill="#FAFAFA"/>
<path d="M238.624 370.143L362.228 89.3884H420.596L296.968 370.143H238.624Z" fill="white"/>
<path d="M209.539 349.17C208.718 349.17 208.047 348.499 208.047 347.678V103.096C208.047 102.275 208.718 101.604 209.539 101.604C210.36 101.604 211.032 102.275 211.032 103.096V347.678C211.032 348.499 210.36 349.17 209.539 349.17Z" fill="#F0F0F0"/>
<path d="M309.507 370.143L433.136 89.3884H455.876L332.272 370.143H309.507Z" fill="white"/>
<path d="M728.516 370.134V89.3794H725.829V370.134H728.516Z" fill="#E6E6E6"/>
<path opacity="0.6" d="M754.561 121.134H191.7L189.785 97.5737H752.62L754.561 121.134Z" fill="#EBEBEB"/>
<path opacity="0.6" d="M754.561 159.795H191.7L189.785 136.235H752.62L754.561 159.795Z" fill="#EBEBEB"/>
<path opacity="0.6" d="M754.561 198.456H191.7L189.785 174.896H752.62L754.561 198.456Z" fill="#EBEBEB"/>
<path opacity="0.6" d="M754.561 237.118H191.7L189.785 213.533H752.62L754.561 237.118Z" fill="#EBEBEB"/>
<path opacity="0.6" d="M754.561 275.754H191.7L189.785 252.194H752.62L754.561 275.754Z" fill="#EBEBEB"/>
<path opacity="0.6" d="M754.561 314.415H191.7L189.785 290.855H752.62L754.561 314.415Z" fill="#EBEBEB"/>
<path d="M909.168 219.892L1060.74 219.892V68.3314L909.168 68.3314V219.892Z" fill="#EBEBEB"/>
<path d="M909.165 68.3164H902.447V219.877H909.165V68.3164Z" fill="#E0E0E0"/>
<path d="M929.718 199.342H1040.21V88.8563L929.718 88.8563V199.342Z" fill="white"/>
<path d="M984.964 181.08L1021.94 144.103L984.964 107.125L947.985 144.103L984.964 181.08Z" fill="#F5F5F5"/>
<path d="M856.94 419.165H1008.51V267.604H856.94V419.165Z" fill="#EBEBEB"/>
<path d="M856.942 267.594H850.224V419.154H856.942V267.594Z" fill="#E0E0E0"/>
<path d="M877.491 398.615H987.984V288.129H877.491V398.615Z" fill="white"/>
<path d="M924.889 366.934H940.588C949.271 366.934 956.288 359.893 956.288 351.236V335.537C956.288 326.855 949.247 319.839 940.588 319.839H924.889C916.206 319.839 909.19 326.879 909.19 335.537V351.236C909.165 359.893 916.206 366.934 924.889 366.934Z" fill="#F5F5F5"/>
<path d="M765.607 492.794H727.814V804.473H765.607V492.794Z" fill="#F0F0F0"/>
<path d="M1095.96 804.473H733.064V814.648H1095.96V804.473Z" fill="#F0F0F0"/>
<path d="M765.604 804.471H1101.18V492.793L765.604 492.793V804.471Z" fill="#FAFAFA"/>
<path d="M1035.51 674.93H831.34C811.287 674.93 794.99 658.635 794.99 638.583C794.99 618.531 811.287 602.235 831.34 602.235H1035.51C1055.56 602.235 1071.86 618.531 1071.86 638.583C1071.86 658.635 1055.53 674.93 1035.51 674.93ZM831.315 604.673C812.63 604.673 797.404 619.874 797.404 638.583C797.404 657.266 812.606 672.492 831.315 672.492H1035.48C1054.17 672.492 1069.39 657.291 1069.39 638.583C1069.39 619.899 1054.19 604.673 1035.48 604.673H831.315Z" fill="#F0F0F0"/>
<path d="M1035.51 765.339H831.34C811.287 765.339 794.99 749.044 794.99 728.992C794.99 708.939 811.287 692.644 831.34 692.644H1035.51C1055.56 692.644 1071.86 708.939 1071.86 728.992C1071.86 749.044 1055.53 765.339 1035.51 765.339ZM831.315 695.082C812.63 695.082 797.404 710.283 797.404 728.992C797.404 747.675 812.606 762.901 831.315 762.901H1035.48C1054.17 762.901 1069.39 747.7 1069.39 728.992C1069.39 710.308 1054.19 695.082 1035.48 695.082H831.315Z" fill="#F0F0F0"/>
<path d="M964.224 630.746H902.597C898.417 630.746 895.008 627.338 895.008 623.158C895.008 618.978 898.417 615.57 902.597 615.57H964.224C968.404 615.57 971.813 618.978 971.813 623.158C971.813 627.313 968.379 630.746 964.224 630.746Z" fill="#EBEBEB"/>
<path d="M1035.51 584.497H831.34C811.287 584.497 794.99 568.201 794.99 548.149C794.99 528.097 811.287 511.802 831.34 511.802H1035.51C1055.56 511.802 1071.86 528.097 1071.86 548.149C1071.86 568.201 1055.53 584.497 1035.51 584.497ZM831.315 514.24C812.63 514.24 797.404 529.441 797.404 548.149C797.404 566.833 812.606 582.059 831.315 582.059H1035.48C1054.17 582.059 1069.39 566.858 1069.39 548.149C1069.39 529.466 1054.19 514.24 1035.48 514.24H831.315Z" fill="#F0F0F0"/>
<path d="M964.224 540.312H902.597C898.417 540.312 895.008 536.904 895.008 532.724C895.008 528.545 898.417 525.136 902.597 525.136H964.224C968.404 525.136 971.813 528.545 971.813 532.724C971.813 536.904 968.379 540.312 964.224 540.312Z" fill="#EBEBEB"/>
<path d="M964.224 721.154H902.597C898.417 721.154 895.008 717.746 895.008 713.567C895.008 709.387 898.417 705.979 902.597 705.979H964.224C968.404 705.979 971.813 709.387 971.813 713.567C971.813 717.746 968.379 721.154 964.224 721.154Z" fill="#EBEBEB"/>
<path d="M1108.11 476.947H765.632V492.794H1108.11V476.947Z" fill="#F0F0F0"/>
<path d="M720.407 492.809H765.614V476.962H720.407V492.809Z" fill="#E6E6E6"/>
<path d="M622 927C888.421 927 1104.4 914.391 1104.4 898.837C1104.4 883.284 888.421 870.675 622 870.675C355.579 870.675 139.602 883.284 139.602 898.837C139.602 914.391 355.579 927 622 927Z" fill="#F5F5F5"/>
<path d="M1029.14 232.067H654.145C654.145 232.067 586.571 294.189 586.571 445.501C586.571 575.541 637.799 751.83 618.567 824.028C604.061 878.487 533.726 887.816 500.038 889.135H856.967C856.967 889.135 974.351 896.225 993.583 824.028C1012.82 751.83 961.587 575.541 961.587 445.501C961.587 294.164 1029.14 232.067 1029.14 232.067Z" fill="#0056A3"/>
<path opacity="0.7" d="M1029.14 232.067H654.145C654.145 232.067 586.571 294.189 586.571 445.501C586.571 575.541 637.799 751.83 618.567 824.028C604.061 878.487 533.726 887.816 500.038 889.135H856.967C856.967 889.135 974.351 896.225 993.583 824.028C1012.82 751.83 961.587 575.541 961.587 445.501C961.587 294.164 1029.14 232.067 1029.14 232.067Z" fill="white"/>
<g opacity="0.8">
<path opacity="0.8" d="M927.128 391.539H627.225C635.709 325.014 658.574 286.303 671.188 269.385H960.244C946.186 298.991 932.801 339.319 927.128 391.539Z" fill="#0056A3"/>
<path opacity="0.3" d="M924.615 426.817H624.289C624.538 420.771 624.886 414.9 625.384 409.228H925.536C925.113 414.95 924.815 420.821 924.615 426.817Z" fill="#0056A3"/>
<path opacity="0.3" d="M718.46 462.07H624.189C624.015 456.447 623.916 450.924 623.916 445.476V444.505H718.211V445.476C718.211 450.949 718.286 456.497 718.46 462.07Z" fill="#0056A3"/>
<path opacity="0.3" d="M926.407 497.323H626.304C625.782 491.402 625.359 485.53 625.035 479.759H925.262C925.561 485.58 925.934 491.427 926.407 497.323Z" fill="#0056A3"/>
<path opacity="0.3" d="M929.716 532.6H629.862C629.165 526.704 628.519 520.833 627.921 515.011H927.9C928.447 520.858 929.069 526.729 929.716 532.6Z" fill="#0056A3"/>
<path opacity="0.3" d="M934.045 567.853H634.39C633.569 561.982 632.798 556.11 632.052 550.289H931.806C932.502 556.135 933.249 561.982 934.045 567.853Z" fill="#0056A3"/>
<path opacity="0.3" d="M938.996 603.106H639.491C638.62 597.235 637.749 591.388 636.903 585.542H936.483C937.304 591.388 938.15 597.26 938.996 603.106Z" fill="#0056A3"/>
<path opacity="0.3" d="M944.295 638.384H644.815C644.342 635.175 643.845 631.916 643.347 628.657C642.949 626.044 642.551 623.432 642.153 620.795H941.633C942.529 626.666 943.4 632.538 944.295 638.384Z" fill="#0056A3"/>
<path opacity="0.3" d="M650.04 673.637C649.219 667.84 648.373 661.994 647.477 656.073H946.983C947.853 661.944 948.749 667.79 949.595 673.637H650.04Z" fill="#0056A3"/>
<path opacity="0.3" d="M654.792 708.89C654.095 703.143 653.324 697.272 652.528 691.326H902.323C903.169 697.247 903.965 703.118 904.711 708.89H654.792Z" fill="#0056A3"/>
<path opacity="0.3" d="M658.474 744.168C658.001 738.421 657.454 732.549 656.832 726.579H956.686C957.358 732.599 957.98 738.471 958.502 744.168H658.474Z" fill="#0056A3"/>
<path opacity="0.3" d="M660.191 779.421C660.166 773.748 659.967 767.877 659.643 761.856H817.855C818.253 768.001 818.477 773.873 818.552 779.421H660.191Z" fill="#0056A3"/>
</g>
<path d="M885.753 870.078C866.72 873.536 847.438 870.899 828.305 869.979C819.124 869.531 809.894 869.506 800.763 870.725C791.831 871.919 782.899 874.258 773.868 873.462C776.853 871.844 779.64 869.954 782.252 867.764C782.824 867.292 782.451 866.421 781.829 866.197C753.74 856.345 728.163 883.189 700.173 876.895C708.085 871.023 719.256 870.899 726.023 863.212C726.546 862.614 726.197 861.644 725.352 861.619C700.297 861.221 676.612 870.949 651.856 873.113C650.662 873.213 650.662 875.079 651.856 874.979C675.865 872.889 698.879 863.709 723.087 863.51C715.847 869.979 704.801 870.202 697.436 876.721C696.889 877.193 697.212 878.114 697.859 878.288C726.048 886.075 751.749 859.156 779.59 867.491C776.679 869.755 773.544 871.67 770.16 873.238C769.464 873.561 769.613 874.805 770.384 874.954C779.565 876.497 788.547 874.531 797.603 873.088C807.754 871.471 818.005 871.397 828.255 871.894C847.587 872.84 866.993 875.427 886.201 871.944C887.445 871.645 886.947 869.854 885.753 870.078Z" fill="#0056A3"/>
<path d="M377.877 323.869C379.445 325.884 381.46 328.248 383.301 330.437C385.192 332.651 387.158 334.841 389.148 336.98C393.154 341.259 397.209 345.464 401.489 349.37C410.022 357.107 419.203 364.098 428.807 368.526C430.001 369.074 431.195 369.571 432.414 370.019C433.036 370.268 433.584 370.442 434.106 370.616C434.629 370.79 435.176 370.964 435.748 371.089C437.987 371.661 440.451 372.059 443.038 372.233C448.238 372.507 453.836 372.158 459.509 371.288C465.181 370.467 470.929 369.173 476.651 367.655C482.349 366.163 488.22 364.322 493.669 362.406L498.695 372.258C487.548 379.124 475.979 384.448 463.116 388.081C456.697 389.847 449.98 391.141 442.814 391.365C439.231 391.464 435.499 391.29 431.693 390.618C430.747 390.469 429.777 390.27 428.832 390.021C427.836 389.797 426.916 389.549 426.07 389.275C424.328 388.777 422.637 388.18 420.97 387.558C407.709 382.408 396.662 374.547 386.735 365.964C381.784 361.635 377.032 357.157 372.628 352.38C370.413 349.992 368.249 347.578 366.134 345.091C363.97 342.578 362.054 340.165 359.889 337.254L377.877 323.869Z" fill="#FFB573"/>
<path d="M352.574 316.829C352.027 330.761 357.426 355.863 357.426 355.863L391.91 351.683C391.91 351.683 393.179 314.938 386.486 306.031C375.29 291.129 353.097 303.668 352.574 316.829Z" fill="#0056A3"/>
<path d="M489.191 365.964L505.363 351.186L507.428 367.108C507.428 367.108 500.735 376.065 493.147 372.308L489.191 365.964Z" fill="#FFB573"/>
<path d="M513.449 352.057L520.291 361.013L507.403 367.108L505.338 351.186L513.449 352.057Z" fill="#FFB573"/>
<path d="M509.368 311.778C511.085 311.679 512.03 311.778 513.249 311.803C513.871 311.803 514.419 311.828 514.792 311.903L516.086 312.077C517.603 312.376 518.549 312.798 519.171 313.321C519.768 313.843 519.793 314.515 520.017 315.137L520.589 317.028L522.903 324.591L527.531 339.692L536.761 369.895C542.857 390.046 549.201 410.148 555.073 430.35C567.14 470.703 578.584 511.205 589.78 551.782C600.976 592.359 611.55 633.085 622.373 673.761C633.37 714.388 642.924 755.388 646.382 797.955C646.93 804.747 641.879 810.718 635.087 811.265C629.762 811.688 624.936 808.653 622.846 804.075C605.181 765.165 593.637 724.688 583.535 683.837C573.26 643.036 562.711 602.285 552.809 561.385C542.906 520.485 533.228 479.51 524.197 438.385C519.519 417.861 515.315 397.211 510.836 376.637L504.243 345.738L500.934 330.288L499.292 322.576L498.869 320.635C498.769 319.988 498.471 319.391 498.72 318.645C498.993 317.899 499.64 317.053 500.809 316.058L501.854 315.286C502.153 315.038 502.626 314.739 503.173 314.44C504.243 313.819 505.014 313.296 506.557 312.55C507.477 312.052 508.448 311.828 509.368 311.778Z" fill="#263238"/>
<path d="M644.044 804.101C643.621 802.707 642.203 801.862 640.809 802.235L635.336 803.653L629.862 805.071C628.444 805.444 627.623 806.862 627.946 808.28C631.355 823.929 628.021 835.174 631.604 848.932C635.361 863.436 651.707 870.875 651.707 870.875L651.184 864.705L653.722 870.377C653.722 870.377 664.396 855.948 660.639 841.443C657.031 827.661 648.671 819.451 644.044 804.101Z" fill="#0056A3"/>
<path opacity="0.3" d="M644.044 804.101C643.621 802.707 642.203 801.862 640.809 802.235L635.336 803.653L629.862 805.071C628.444 805.444 627.623 806.862 627.946 808.28C631.355 823.929 628.021 835.174 631.604 848.932C635.361 863.436 651.707 870.875 651.707 870.875L651.184 864.705L653.722 870.377C653.722 870.377 664.396 855.948 660.639 841.443C657.031 827.661 648.671 819.451 644.044 804.101Z" fill="white"/>
<path d="M648.298 840.075C648.771 841.916 647.676 843.782 645.835 844.254C643.994 844.727 642.128 843.632 641.655 841.791C641.182 839.95 642.277 838.085 644.118 837.612C645.959 837.139 647.825 838.234 648.298 840.075Z" fill="#263238"/>
<path d="M651.358 865.451C650.935 865.55 650.512 865.302 650.413 864.904L644.243 841.12C644.143 840.697 644.392 840.274 644.79 840.174C645.213 840.075 645.636 840.324 645.735 840.722L651.906 864.506C652.005 864.928 651.756 865.351 651.358 865.451Z" fill="#263238"/>
<path d="M631.206 718.642L597.667 727.325C595.752 727.823 593.761 726.653 593.264 724.738C592.766 722.822 593.935 720.832 595.851 720.334L629.389 711.652C631.305 711.154 633.296 712.323 633.793 714.239C634.291 716.155 633.121 718.145 631.206 718.642Z" fill="#0056A3"/>
<path d="M460.952 263.34C460.355 264.833 460.653 266.4 461.624 266.823C462.594 267.246 463.888 266.375 464.485 264.882C465.082 263.39 464.783 261.822 463.813 261.399C462.843 260.976 461.574 261.847 460.952 263.34Z" fill="#263238"/>
<path d="M463.365 261.3L467.371 261.822C467.371 261.822 464.385 263.813 463.365 261.3Z" fill="#263238"/>
<path d="M461.648 265.33C461.648 265.33 461.599 272.868 463.141 277.197C460.429 278.192 457.419 275.879 457.419 275.879L461.648 265.33Z" fill="#ED893E"/>
<path d="M466.973 254.234C466.823 254.209 466.674 254.134 466.55 254.035C463.315 251.249 459.956 252.07 459.807 252.094C459.31 252.219 458.787 251.92 458.638 251.423C458.513 250.925 458.812 250.403 459.31 250.253C459.484 250.204 463.763 249.134 467.769 252.592C468.167 252.94 468.217 253.537 467.868 253.935C467.669 254.209 467.296 254.309 466.973 254.234Z" fill="#263238"/>
<path d="M408.206 262.569C409.276 274.66 405.22 294.513 396.089 301.255C396.089 301.255 402.981 313.993 425.05 316.953C449.308 320.212 437.913 306.554 437.913 306.554C425 301.628 426.368 291.925 429.653 283.069L408.206 262.569Z" fill="#FFB573"/>
<path d="M474.312 327.203C476.203 338.523 478.567 350.24 481.055 361.635C482.373 367.332 483.692 373.054 485.235 378.652C486.653 384.299 488.32 389.847 490.036 395.345C490.957 398.032 491.803 400.819 492.798 403.456L494.291 407.436L494.664 408.407L494.764 408.68C494.838 408.854 494.863 409.004 494.938 409.128C495.162 409.601 495.709 410.322 497.277 410.944C498.794 411.541 500.984 411.939 503.372 412.113C508.224 412.387 513.772 411.765 519.295 410.82C524.819 409.849 530.591 408.506 535.99 406.988L540.543 417.089C537.682 418.806 534.97 420.174 532.084 421.567C529.247 422.96 526.311 424.204 523.301 425.299C517.255 427.513 510.961 429.354 503.77 429.951C500.163 430.225 496.306 430.2 492.027 429.155C487.847 428.16 482.871 425.822 479.363 421.518C478.467 420.497 477.721 419.353 477.074 418.209C476.751 417.636 476.452 417.064 476.178 416.467L475.681 415.373L473.74 411.019C472.471 408.108 471.352 405.197 470.182 402.262C468.043 396.39 466.002 390.494 464.236 384.573C462.445 378.627 460.902 372.681 459.384 366.71C456.399 354.719 454.01 342.852 452.194 330.437L474.312 327.203Z" fill="#FFB573"/>
<path d="M533.551 407.71L543.155 400.097L547.459 414.9C547.459 414.9 534.323 424.404 530.815 413.233L533.551 407.71Z" fill="#FFB573"/>
<path d="M551.813 402.734L555.247 413.507L547.459 414.9L543.13 400.097L551.813 402.734Z" fill="#FFB573"/>
<path d="M372.379 876.87L392.457 878.337L398.404 832.237L378.325 830.77L372.379 876.87Z" fill="#FFB573"/>
<path d="M243.799 818.306L261.19 828.879L290.126 792.756L272.735 782.182L243.799 818.306Z" fill="#FFB573"/>
<path d="M273.332 834.203C273.108 834.278 272.859 834.303 272.61 834.303C270.048 834.253 267.161 830.397 265.669 828.108C265.569 827.959 265.569 827.735 265.669 827.585C265.768 827.436 265.967 827.337 266.166 827.386C266.987 827.561 274.178 829.053 275.123 831.467C275.322 831.989 275.247 832.561 274.899 833.059C274.426 833.631 273.904 834.029 273.332 834.203ZM267.112 828.556C269.202 831.541 271.242 833.308 272.61 833.332C273.182 833.332 273.655 833.059 274.078 832.487C274.302 832.163 274.252 831.939 274.202 831.79C273.705 830.521 269.973 829.252 267.112 828.556Z" fill="#0056A3"/>
<path d="M272.262 827.984C270.097 828.581 267.286 828.655 265.917 828.307C265.743 828.257 265.619 828.133 265.594 827.984C265.544 827.81 265.594 827.66 265.718 827.536C265.892 827.362 269.824 823.307 272.734 823.431C273.531 823.456 274.178 823.779 274.675 824.401C275.446 825.347 275.173 826.118 274.924 826.491C274.476 827.138 273.456 827.635 272.262 827.984ZM267.037 827.536C269.45 827.81 273.356 827.088 274.103 825.944C274.227 825.745 274.327 825.471 273.929 824.973C273.605 824.575 273.207 824.376 272.685 824.352C270.943 824.277 268.43 826.242 267.037 827.536Z" fill="#0056A3"/>
<path d="M266.415 824.998L249.92 809.126C249.322 808.553 248.452 808.479 247.805 808.976L233.723 819.848C232.255 820.968 232.23 823.331 233.648 824.65C239.495 830.098 242.58 832.437 249.845 839.428C254.298 843.732 260.394 850.449 266.564 856.395C272.585 862.192 278.755 856.718 276.69 853.708C267.485 840.224 268.878 835.174 268.032 828.257C267.883 826.988 267.286 825.844 266.415 824.998Z" fill="#263238"/>
<path d="M401.165 879.01C398.951 879.01 396.562 878.636 394.87 878.288C394.671 878.238 394.522 878.089 394.497 877.89C394.472 877.691 394.572 877.492 394.746 877.392C395.667 876.92 403.802 872.815 406.216 874.183C406.688 874.457 406.937 874.88 406.987 875.452C407.037 876.397 406.738 877.169 406.066 877.766C404.997 878.686 403.155 879.01 401.165 879.01ZM396.438 877.616C400.866 878.363 404.176 878.164 405.42 877.069C405.867 876.671 406.066 876.173 406.017 875.527C405.992 875.278 405.917 875.129 405.718 875.029C404.399 874.283 399.797 876.024 396.438 877.616Z" fill="#0056A3"/>
<path d="M394.945 878.288C394.846 878.288 394.746 878.263 394.671 878.189C394.522 878.089 394.472 877.915 394.472 877.766C394.522 877.417 395.443 869.208 399.921 869.208C400.046 869.208 400.17 869.208 400.319 869.232C401.613 869.357 401.986 870.029 402.086 870.551C402.459 872.815 397.582 877.169 395.144 878.263C395.07 878.263 395.02 878.288 394.945 878.288ZM399.946 870.153C397.06 870.153 395.915 874.93 395.542 876.97C398.055 875.477 401.339 872.069 401.14 870.7C401.115 870.601 401.066 870.252 400.22 870.178C400.145 870.153 400.046 870.153 399.946 870.153Z" fill="#0056A3"/>
<path d="M393.701 875.477H371.135C370.314 875.477 369.642 876.049 369.493 876.845L366.458 894.708C366.134 896.549 367.702 898.315 369.592 898.29C377.455 898.166 381.261 897.693 391.188 897.693C397.284 897.693 409.898 898.315 418.332 898.315C426.568 898.315 427.414 889.981 423.93 889.234C408.281 885.851 402.21 881.174 397.01 876.72C396.09 875.924 394.895 875.477 393.701 875.477Z" fill="#263238"/>
<path opacity="0.2" d="M398.404 832.263L395.094 857.888L375.24 854.554L378.325 830.795L398.404 832.263Z" fill="black"/>
<path opacity="0.2" d="M272.71 782.182L290.126 792.756L278.133 807.708L260.369 797.582L272.71 782.182Z" fill="black"/>
<path d="M362.253 422.214C377.977 424.329 411.316 428.807 443.536 433.136C475.034 319.143 465.753 316.008 465.753 316.008C463.265 314.515 458.414 313.022 454.682 311.679C450.85 310.286 446.969 309.017 443.063 307.873C435.251 305.559 427.289 303.718 419.253 302.325C403.653 299.638 387.705 298.742 371.906 299.663C368.821 299.837 365.661 301.603 363.92 304.19C363.596 304.688 363.298 305.211 363.049 305.758C362.178 307.649 361.83 309.763 362.078 311.828C369.02 371.786 366.806 391.514 362.253 422.214Z" fill="#0056A3"/>
<path opacity="0.2" d="M451.448 350.987C449.208 366.909 453.289 379.796 455.851 385.917C461.25 363.675 464.186 348.499 465.629 338.15C459.434 337.702 452.99 340.065 451.448 350.987Z" fill="black"/>
<path d="M465.032 315.684C478.94 323.67 488.618 342.628 491.554 353.674L461.897 380.841C461.897 380.841 446.521 345.091 447.765 333.97C449.009 322.7 459.782 312.649 465.032 315.684Z" fill="#0056A3"/>
<path d="M412.61 237.541C406.365 256.399 403.33 264.236 408.803 277.695C417.064 297.921 441.521 302.2 453.264 285.756C463.838 270.953 472.272 242.616 457.22 227.515C442.416 212.613 418.855 218.683 412.61 237.541Z" fill="#FFB573"/>
<path d="M443.536 254.284C442.118 257.618 442.118 261.747 442.939 265.106C444.183 270.131 447.939 270.505 450.228 267.295C452.294 264.409 454.135 258.314 451.622 254.11C449.159 249.98 445.153 250.477 443.536 254.284Z" fill="#FFB573"/>
<path d="M419.377 214.08C405.967 206.617 381.784 228.46 375.688 264.111C371.334 289.636 425.846 301.976 460.28 301.578C458.016 295.558 443.71 277.446 452.841 260.031C459.484 247.368 467.047 250.279 467.545 235.55C468.142 216.966 443.561 204.527 419.377 214.08Z" fill="#263238"/>
<path d="M449.955 222.091C465.555 220.573 481.279 235.924 469.61 251.224C469.61 251.224 461.101 243.661 449.109 246.298C441.993 247.84 449.955 222.091 449.955 222.091Z" fill="#263238"/>
<path d="M422.089 430.25C422.089 430.25 390.516 563.674 375.763 640.3C360.188 721.155 285.523 805.394 285.523 805.394L260.17 791.263C260.17 791.263 307.168 714.363 322.395 638.882C353.346 485.63 332.397 454.755 362.253 422.239L422.089 430.25Z" fill="#263238"/>
<path d="M288.036 807.757L256.364 790.119L260.991 780.764L296.52 797.085L288.036 807.757Z" fill="#0056A3"/>
<path opacity="0.2" d="M405.295 459.233C380.739 480.53 383.401 556.135 385.963 590.219C396.264 541.781 408.654 487.819 415.894 456.596C413.331 454.681 409.823 455.328 405.295 459.233Z" fill="black"/>
<path d="M442.341 433.186C442.341 433.186 456.548 591.563 448.785 651.968C440.724 714.811 399.722 851.519 399.722 851.519L370.762 847.787C370.762 847.787 394.273 712.298 398.453 650.102C403.006 582.283 382.779 425.2 382.779 425.2L442.341 433.186Z" fill="#263238"/>
<path d="M405.868 853.21L364.616 847.861L365.238 835.671L410.022 840.025L405.868 853.21Z" fill="#0056A3"/>
<path d="M361.531 417.313L357.103 424.055C356.754 424.578 357.376 425.249 358.297 425.374L443.561 436.818C444.282 436.917 444.929 436.644 445.029 436.196L446.521 429.081C446.621 428.583 446.024 428.086 445.228 427.961L362.9 416.915C362.327 416.791 361.755 416.965 361.531 417.313Z" fill="#0056A3"/>
<path opacity="0.5" d="M361.531 417.313L357.103 424.055C356.754 424.578 357.376 425.249 358.297 425.374L443.561 436.818C444.282 436.917 444.929 436.644 445.029 436.196L446.521 429.081C446.621 428.583 446.024 428.086 445.228 427.961L362.9 416.915C362.327 416.791 361.755 416.965 361.531 417.313Z" fill="black"/>
<path d="M371.633 427.936L369.418 427.637C368.97 427.588 368.672 427.314 368.722 427.04L370.762 417.786C370.812 417.512 371.234 417.338 371.657 417.412L373.872 417.711C374.32 417.761 374.618 418.034 374.568 418.308L372.528 427.563C372.478 427.812 372.056 427.986 371.633 427.936Z" fill="#263238"/>
<path d="M427.314 435.524L425.1 435.226C424.652 435.176 424.353 434.902 424.403 434.628L426.443 425.374C426.493 425.1 426.916 424.926 427.339 425L429.553 425.299C430.001 425.349 430.3 425.622 430.25 425.896L428.21 435.151C428.16 435.425 427.762 435.599 427.314 435.524Z" fill="#263238"/>
<path d="M726.076 333.916C725.246 337.578 723.562 340.451 721.022 342.534C718.483 344.601 715.383 345.586 711.721 345.488C708.547 345.423 706.016 344.3 704.128 342.119C702.256 339.922 701.247 336.968 701.101 333.257C701.052 331.987 701.109 330.726 701.271 329.473L701.931 325.176C702.435 321.904 703.444 319.007 704.958 316.484C706.488 313.962 708.343 312.065 710.524 310.796C712.705 309.526 715.106 308.916 717.727 308.965C721.112 309.03 723.757 310.104 725.661 312.188C727.565 314.271 728.501 317.078 728.469 320.61L725.515 320.586C725.515 317.738 724.831 315.532 723.464 313.97C722.097 312.391 720.135 311.569 717.58 311.504C714.357 311.423 711.607 312.627 709.328 315.117C707.066 317.591 705.593 321.017 704.909 325.396L704.177 330.278L704.079 332.476C704.047 334.396 704.323 336.178 704.909 337.822C705.511 339.466 706.407 340.719 707.595 341.582C708.783 342.445 710.207 342.9 711.867 342.949C714.699 343.047 717.067 342.339 718.972 340.825C720.876 339.295 722.276 337 723.171 333.94L726.076 333.916ZM731.569 331.548C731.862 328.993 732.644 326.657 733.913 324.541C735.183 322.409 736.761 320.789 738.649 319.683C740.554 318.576 742.613 318.047 744.826 318.096C747.007 318.128 748.863 318.73 750.393 319.902C751.939 321.058 753.062 322.645 753.762 324.663C754.478 326.665 754.722 328.887 754.494 331.328L754.445 331.792C753.957 335.959 752.476 339.303 750.002 341.826C747.544 344.349 744.59 345.57 741.14 345.488C738.177 345.439 735.809 344.349 734.035 342.217C732.261 340.085 731.39 337.269 731.423 333.77L731.496 332.378L731.569 331.548ZM734.401 332.378C734.19 334.315 734.328 336.105 734.816 337.749C735.321 339.377 736.118 340.654 737.209 341.582C738.299 342.51 739.659 342.998 741.286 343.047C743.044 343.079 744.647 342.632 746.096 341.704C747.561 340.776 748.765 339.466 749.709 337.773C750.653 336.081 751.263 334.209 751.54 332.158L751.613 331.353C751.906 328.211 751.418 325.648 750.148 323.662C748.895 321.66 747.072 320.635 744.68 320.586C742.076 320.505 739.821 321.514 737.917 323.613C736.029 325.697 734.873 328.472 734.45 331.938L734.401 332.378ZM765.676 318.584L764.797 323.101C765.969 321.473 767.32 320.228 768.85 319.365C770.396 318.486 772.048 318.063 773.806 318.096C776.345 318.161 778.192 319.048 779.348 320.757C780.503 322.466 780.91 324.818 780.568 327.812L777.688 345H774.807L777.688 327.764C777.785 326.836 777.801 325.941 777.736 325.078C777.46 322.181 775.881 320.692 773 320.61C771.291 320.578 769.696 321.09 768.215 322.148C766.734 323.19 765.432 324.769 764.309 326.885L761.184 345H758.303L762.893 318.584H765.676ZM801.906 338.115C802.167 335.869 800.799 334.242 797.805 333.232L793.605 331.987C789.748 330.685 787.925 328.512 788.137 325.469C788.251 323.271 789.26 321.489 791.164 320.122C793.085 318.739 795.363 318.063 798 318.096C800.588 318.128 802.688 318.861 804.299 320.293C805.91 321.709 806.659 323.605 806.545 325.981H803.664C803.762 324.403 803.265 323.117 802.175 322.124C801.101 321.131 799.668 320.618 797.878 320.586C796.022 320.586 794.46 321.025 793.19 321.904C791.921 322.767 791.205 323.914 791.042 325.347C790.798 327.446 792.084 328.919 794.899 329.766L797.951 330.645L799.587 331.206C803.265 332.59 804.999 334.844 804.787 337.969C804.657 340.085 803.737 341.826 802.028 343.193C800.336 344.544 798.146 345.301 795.461 345.464L794.46 345.488C792.686 345.456 791.083 345.114 789.65 344.463C788.218 343.796 787.119 342.868 786.354 341.68C785.59 340.492 785.256 339.124 785.354 337.578L788.259 337.603C788.259 339.263 788.82 340.573 789.943 341.533C791.066 342.493 792.613 342.99 794.582 343.022C796.535 343.022 798.195 342.583 799.562 341.704C800.93 340.809 801.711 339.613 801.906 338.115ZM820.485 345.488C818.369 345.456 816.538 344.87 814.992 343.73C813.446 342.575 812.307 341.012 811.574 339.043C810.858 337.057 810.606 334.917 810.817 332.622L810.891 331.792C811.118 329.351 811.843 327.031 813.063 324.834C814.284 322.62 815.83 320.936 817.702 319.78C819.574 318.608 821.576 318.047 823.708 318.096C825.677 318.128 827.338 318.665 828.688 319.707C830.056 320.749 831.049 322.197 831.667 324.053C832.285 325.908 832.481 327.959 832.253 330.205L832.058 331.987H813.771L813.698 332.573C813.454 334.347 813.584 336.048 814.089 337.676C814.593 339.287 815.415 340.573 816.555 341.533C817.71 342.477 819.094 342.965 820.705 342.998C822.268 343.047 823.675 342.746 824.929 342.095C826.182 341.444 827.338 340.573 828.396 339.482L830.104 340.874C828.916 342.404 827.5 343.568 825.856 344.365C824.229 345.146 822.438 345.521 820.485 345.488ZM823.562 320.586C821.446 320.505 819.549 321.253 817.873 322.832C816.197 324.411 814.935 326.632 814.089 329.497L829.421 329.521L829.494 329.155C829.787 326.844 829.38 324.858 828.273 323.198C827.167 321.522 825.596 320.651 823.562 320.586ZM842.678 318.584L841.799 323.101C842.971 321.473 844.322 320.228 845.852 319.365C847.398 318.486 849.05 318.063 850.808 318.096C853.347 318.161 855.194 319.048 856.35 320.757C857.505 322.466 857.912 324.818 857.57 327.812L854.689 345H851.809L854.689 327.764C854.787 326.836 854.803 325.941 854.738 325.078C854.462 322.181 852.883 320.692 850.002 320.61C848.293 320.578 846.698 321.09 845.217 322.148C843.736 323.19 842.434 324.769 841.311 326.885L838.186 345H835.305L839.895 318.584H842.678ZM872.438 311.821L871.267 318.584H876.564L876.149 320.977H870.852L867.922 338.604L867.873 340.117C867.873 341.891 868.687 342.803 870.314 342.852C870.819 342.868 871.608 342.811 872.683 342.681L872.561 345.073C871.6 345.35 870.624 345.472 869.631 345.439C867.922 345.407 866.677 344.813 865.896 343.657C865.114 342.485 864.829 340.793 865.041 338.579L867.946 320.977H863.21L863.649 318.584H868.337L869.533 311.821H872.438Z" fill="white"/>
</svg>
